<svg width="37" height="29" viewBox="0 0 37 29" fill="none" xmlns="http://www.w3.org/2000/svg">
<g clip-path="url(#clip0)">
<path d="M11.4339 23.0705C17.7486 23.0705 22.8678 17.906 22.8678 11.5353C22.8678 5.16451 17.7486 0 11.4339 0C5.11913 0 0 5.16451 0 11.5353C0 17.906 5.11913 23.0705 11.4339 23.0705Z" fill="#EB001B"/>
<path d="M25.5661 23.0705C31.8809 23.0705 37 17.906 37 11.5353C37 5.16451 31.8809 0 25.5661 0C19.2514 0 14.1322 5.16451 14.1322 11.5353C14.1322 17.906 19.2514 23.0705 25.5661 23.0705Z" fill="#0099DF"/>
<path d="M14.1322 11.5347C14.1322 13.6007 14.6705 15.5427 15.6177 17.2231C16.3536 18.5316 17.3348 19.6748 18.5 20.6045C19.7878 19.5784 20.8576 18.2768 21.614 16.7892C22.418 15.2122 22.8678 13.4285 22.8678 11.5347C22.8678 9.67524 22.4317 7.91224 21.6549 6.35584C20.8985 4.83388 19.8151 3.51163 18.5 2.46484C17.219 3.48408 16.156 4.7719 15.4064 6.24566C14.5956 7.8296 14.1322 9.62704 14.1322 11.5347Z" fill="#6C6BBD"/>
<path fill-rule="evenodd" clip-rule="evenodd" d="M22.5082 27.0673L22.5082 27.0671C22.5064 26.9096 22.5047 26.7669 22.5129 26.6228C22.5217 26.4663 22.4627 26.4194 22.324 26.4319C22.2631 26.4381 22.2009 26.4361 22.1383 26.434C22.1068 26.4329 22.0752 26.4319 22.0436 26.4319C21.958 26.4319 21.9167 26.3912 21.9196 26.3005C21.9226 26.169 21.9226 26.0408 21.9196 25.9093C21.9196 25.8155 21.9639 25.7779 22.0465 25.7779C22.083 25.7779 22.1192 25.7772 22.1553 25.7765C22.2271 25.7751 22.2985 25.7737 22.3712 25.7779C22.4715 25.781 22.5129 25.7372 22.5099 25.6308C22.5084 25.526 22.5092 25.422 22.5099 25.3179C22.5106 25.2139 22.5114 25.1099 22.5099 25.005C22.507 24.8987 22.5453 24.8517 22.6486 24.858C22.7814 24.8642 22.9142 24.8611 23.047 24.858H23.0471C23.1415 24.8548 23.1799 24.8955 23.1769 24.9957C23.1757 25.077 23.1765 25.1584 23.1772 25.2397C23.1782 25.3618 23.1793 25.4838 23.174 25.6058C23.1681 25.7341 23.2094 25.7842 23.3334 25.781C23.4514 25.7779 23.5694 25.7787 23.6875 25.7795H23.6875H23.6876C23.8056 25.7803 23.9236 25.781 24.0417 25.7779C24.1656 25.7748 24.2217 25.8217 24.2129 25.9594C24.204 26.0627 24.207 26.169 24.2129 26.2723C24.2217 26.3943 24.1745 26.4413 24.0594 26.4381C23.8922 26.4361 23.7249 26.4368 23.5577 26.4374C23.474 26.4378 23.3904 26.4381 23.3068 26.4381C23.236 26.4381 23.1769 26.4475 23.1769 26.5445C23.18 26.7078 23.1774 26.8712 23.1747 27.0343C23.1698 27.3401 23.1649 27.6455 23.1976 27.9495C23.2241 28.1967 23.3452 28.3031 23.5842 28.3031C23.7406 28.3031 23.8882 28.2686 24.024 28.1904C24.1273 28.1341 24.1745 28.1654 24.204 28.2749C24.2335 28.3844 24.2689 28.4939 24.3073 28.6003C24.3398 28.6879 24.325 28.7474 24.2424 28.7912C23.8587 28.9883 23.4632 29.0415 23.0559 28.8913C22.7342 28.7693 22.5925 28.4939 22.5365 28.156C22.508 27.9606 22.51 27.7652 22.512 27.5823C22.5131 27.4811 22.5141 27.3838 22.5099 27.2924C22.5099 27.2133 22.509 27.1388 22.5082 27.0673ZM17.1826 27.6209C17.1067 27.6209 17.0306 27.6211 16.9544 27.6213C16.7255 27.6219 16.4958 27.6225 16.2677 27.6178C16.1408 27.6147 16.129 27.6647 16.1644 27.7774C16.2972 28.181 16.6956 28.4001 17.1472 28.3187C17.3538 28.2812 17.5486 28.2061 17.7198 28.0809C17.7995 28.0214 17.8496 28.0308 17.8969 28.1184C17.9217 28.165 17.9502 28.2103 17.9785 28.2551C17.9939 28.2795 18.0092 28.3038 18.0238 28.3281C18.1536 28.5409 18.1566 28.5471 17.9588 28.6723C17.3804 29.029 16.7783 29.0947 16.1732 28.7693C15.5623 28.4407 15.3882 27.7273 15.4413 27.1641C15.4974 26.5727 15.7394 26.0971 16.2736 25.8405C17.2003 25.393 18.2127 26.0376 18.2776 27.1109C18.2793 27.1459 18.2823 27.1808 18.2854 27.2158C18.2926 27.2997 18.2998 27.3837 18.2894 27.4676C18.2776 27.5802 18.2304 27.6178 18.13 27.6178C17.9703 27.6178 17.812 27.6186 17.6541 27.6194L17.654 27.6194C17.4969 27.6201 17.3401 27.6209 17.1826 27.6209ZM16.8521 27.0514H17.4423C17.587 27.0514 17.6047 27.0201 17.5604 26.87C17.4542 26.507 17.2121 26.3318 16.8344 26.3443C16.5008 26.3537 16.2441 26.5758 16.1614 26.9169C16.1349 27.0233 16.1644 27.0577 16.2647 27.0546C16.4016 27.0479 16.5415 27.0491 16.6823 27.0504C16.7388 27.0509 16.7954 27.0514 16.8521 27.0514ZM6.58074 25.8059C6.7189 25.7624 6.85863 25.7691 6.99879 25.7759C7.05026 25.7784 7.10179 25.7809 7.15331 25.7809C7.21234 25.7809 7.24186 25.8184 7.24186 25.881V26.0781C7.26547 26.0969 7.27727 26.0875 7.28613 26.075C7.66096 25.565 8.56704 25.5712 8.97138 26.1376C9.03336 26.2252 9.06288 26.2095 9.11895 26.1345C9.52035 25.5931 10.3261 25.6088 10.7452 25.9092C11.061 26.1345 11.2086 26.463 11.2174 26.8541C11.2269 27.2604 11.2254 27.6654 11.2239 28.0707V28.0708V28.0708V28.0708V28.0708V28.0708V28.0709C11.2231 28.2961 11.2223 28.5214 11.2233 28.7472C11.2233 28.863 11.182 28.9068 11.0757 28.9037C10.9518 28.9005 10.8308 28.9005 10.7068 28.9037C10.5917 28.9068 10.5533 28.8598 10.5533 28.7378C10.5548 28.4828 10.5548 28.227 10.5548 27.9712C10.5548 27.7154 10.5548 27.4596 10.5563 27.2046C10.5563 27.0982 10.5474 26.9981 10.5268 26.8948C10.4677 26.5882 10.3025 26.4067 10.0486 26.3785C9.68858 26.3378 9.42 26.4818 9.30489 26.7759C9.25472 26.9042 9.23996 27.0356 9.23996 27.1733V28.6909C9.23996 28.8911 9.22816 28.9005 9.03631 28.9037C9.00188 28.9037 8.96745 28.903 8.93301 28.9023C8.86415 28.9009 8.79528 28.8995 8.72642 28.9037C8.59655 28.913 8.55523 28.8505 8.55523 28.719C8.55819 28.2559 8.55819 27.7897 8.55523 27.3266V27.3266C8.55523 27.2327 8.55523 27.1389 8.55228 27.045C8.53457 26.6101 8.32502 26.3754 7.95019 26.3754C7.53995 26.3723 7.27137 26.6288 7.26252 27.0606C7.25366 27.4596 7.25477 27.8586 7.25588 28.2575C7.25624 28.3905 7.25661 28.5235 7.25661 28.6565C7.25661 28.9037 7.25661 28.9099 7.0146 28.9037C6.97434 28.9028 6.93362 28.9048 6.89277 28.9069H6.89277H6.89276H6.89276H6.89276H6.89276C6.78685 28.9122 6.68002 28.9175 6.57779 28.8724C6.58074 27.8492 6.58074 26.8291 6.58074 25.8059ZM28.6843 28.9976C28.3744 28.9444 28.0793 28.8505 27.8343 28.6315C27.3237 28.1715 27.1614 27.5833 27.3207 26.9012C27.4624 26.291 27.9671 25.8248 28.5574 25.734C29.3808 25.6089 30.0833 26.0219 30.343 26.7885C30.3646 26.8532 30.381 26.9206 30.3974 26.9881C30.4056 27.0218 30.4138 27.0555 30.4227 27.0889V27.6208C30.3164 28.1277 30.0774 28.5345 29.6346 28.788C29.4369 28.9006 29.2214 28.9538 29.006 28.9976H28.6843ZM29.7438 27.3517C29.7438 26.7791 29.3749 26.3755 28.8496 26.3755C28.3301 26.3755 27.9582 26.776 27.9553 27.3361C27.9523 27.9087 28.3242 28.3217 28.8437 28.3249C29.3631 28.3343 29.7438 27.9212 29.7438 27.3517ZM14.1834 25.814C14.1384 25.8544 14.1311 25.9366 14.1161 26.1033C13.6232 25.6308 12.9798 25.5745 12.4367 25.9437C11.7402 26.4193 11.5425 27.4926 11.997 28.2623C12.4604 29.0477 13.5583 29.2167 14.1013 28.5878C14.1035 28.5854 14.1107 28.5883 14.1179 28.5913L14.1249 28.594C14.1324 28.7505 14.1361 28.8279 14.1767 28.8662C14.2165 28.9038 14.2917 28.9038 14.4407 28.9038H14.6031C14.7831 28.9007 14.792 28.8944 14.792 28.6973V26.1158C14.7917 26.0778 14.7919 26.044 14.7921 26.014V26.014V26.014V26.0139C14.7928 25.9012 14.7932 25.8415 14.7636 25.8099C14.7302 25.7743 14.6586 25.7744 14.5063 25.7747L14.4614 25.7747C14.3059 25.7747 14.2269 25.7747 14.1834 25.814ZM14.1545 27.3518C14.1515 27.915 13.7973 28.303 13.2897 28.303C12.785 28.303 12.4279 27.8962 12.4279 27.3267C12.4338 26.7635 12.788 26.3755 13.2956 26.3755C13.8062 26.3755 14.1574 26.7792 14.1545 27.3518ZM21.1877 25.941C20.8601 25.7751 20.5148 25.7125 20.1695 25.7032C19.8448 25.7063 19.5408 25.7563 19.2811 25.9503C18.7528 26.3446 18.8059 27.1456 19.3785 27.4554C19.5497 27.5493 19.7386 27.59 19.9274 27.6244C19.9849 27.6345 20.0429 27.6424 20.1008 27.6503L20.1009 27.6503L20.1009 27.6503C20.2571 27.6715 20.4135 27.6928 20.562 27.7589C20.6446 27.7965 20.7125 27.8559 20.7184 27.9655C20.7243 28.075 20.683 28.1563 20.5974 28.2158C20.5443 28.2533 20.4882 28.2815 20.4233 28.294C20.0868 28.3628 19.7622 28.3347 19.4375 28.2095C19.3958 28.1933 19.3562 28.1619 19.3172 28.131C19.2432 28.0723 19.1715 28.0154 19.0922 28.0687C19.0265 28.1125 18.9871 28.1954 18.9474 28.279L18.9474 28.279C18.9246 28.3269 18.9018 28.375 18.8738 28.416C18.803 28.5256 18.8236 28.5881 18.9269 28.6507C19.3696 28.9229 19.8448 29.0106 20.3465 28.9511C20.6682 28.9136 20.9693 28.8103 21.1995 28.5443C21.5566 28.1313 21.4592 27.4773 20.9959 27.2082C20.8129 27.1018 20.6122 27.0518 20.4085 27.0142C20.3478 27.0035 20.2866 26.9953 20.2254 26.9871C20.0724 26.9667 19.9194 26.9463 19.774 26.8859C19.5762 26.8046 19.5526 26.5949 19.7179 26.4573C19.8123 26.379 19.9274 26.354 20.0485 26.3446C20.3554 26.3258 20.6476 26.3853 20.9191 26.5323C21.0401 26.5981 21.0962 26.5699 21.1434 26.4479C21.1759 26.3634 21.2172 26.2758 21.2674 26.2007C21.3559 26.0693 21.3087 26.0035 21.1877 25.941ZM26.8338 25.7372C26.4471 25.6528 26.1018 25.7185 25.8096 26.0783C25.8062 26.0545 25.8029 26.0362 25.8002 26.0213C25.7957 25.9972 25.793 25.9824 25.7949 25.9688C25.8096 25.8123 25.7388 25.7654 25.603 25.7748C25.4948 25.781 25.3894 25.778 25.2813 25.7749L25.2784 25.7748C25.1721 25.7717 25.1278 25.8155 25.1308 25.9312C25.1352 26.147 25.1347 26.3611 25.1341 26.576C25.1339 26.6478 25.1337 26.7196 25.1337 26.7917C25.1337 26.9505 25.1339 27.1094 25.1341 27.2682C25.1347 27.7446 25.1352 28.2209 25.1308 28.6973C25.1278 28.8506 25.1662 28.9226 25.3197 28.907C25.387 28.9003 25.4529 28.9015 25.5194 28.9028C25.5461 28.9033 25.573 28.9038 25.6001 28.9038C25.7919 28.9007 25.7978 28.8976 25.7978 28.6911C25.7978 28.5338 25.7973 28.3764 25.7968 28.2188C25.7956 27.8244 25.7944 27.4293 25.8008 27.0358C25.8067 26.6009 26.0398 26.3756 26.4412 26.3724C26.4851 26.3724 26.5311 26.3881 26.5765 26.4036C26.6625 26.433 26.7464 26.4617 26.8101 26.3818C26.8662 26.3113 26.8902 26.2114 26.9138 26.1126C26.9238 26.071 26.9337 26.0296 26.9459 25.9907C26.9489 25.9782 26.9518 25.9688 26.9548 25.9594C27.0197 25.8186 26.9607 25.7654 26.8338 25.7372Z" fill="black"/>
</g>
<defs>
<clipPath id="clip0">
<rect width="37" height="29" fill="white"/>
</clipPath>
</defs>
</svg>
