<svg width="33" height="33" viewBox="0 0 33 33" fill="none" xmlns="http://www.w3.org/2000/svg">
<path fill-rule="evenodd" clip-rule="evenodd" d="M24.332 11.561C24.332 8.52347 21.8696 6.06104 18.832 6.06104H10.3529C9.52451 6.06104 8.85293 5.38946 8.85293 4.56104C8.85293 3.73261 9.52451 3.06104 10.3529 3.06104H18.832C23.5264 3.06104 27.332 6.86661 27.332 11.561V20.7231C27.332 25.4176 23.5264 29.2231 18.832 29.2231H10.3529C9.52451 29.2231 8.85293 28.5516 8.85293 27.7231C8.85293 26.8947 9.52451 26.2231 10.3529 26.2231H18.832C21.8696 26.2231 24.332 23.7607 24.332 20.7231V11.561ZM19.3713 8.3129C21.0282 8.3129 22.3713 9.65604 22.3713 11.3129V21.3129C22.3713 22.9698 21.0282 24.3129 19.3713 24.3129H9.37134C7.71448 24.3129 6.37134 22.9698 6.37134 21.3129V11.3129C6.37134 9.65604 7.71448 8.3129 9.37134 8.3129H19.3713Z" fill="#1B315A"/>
</svg>
