<svg width="12" height="12" viewBox="0 0 12 12" fill="none" xmlns="http://www.w3.org/2000/svg">
<circle cx="6.25" cy="5.75" r="5.25" stroke="#00A8EC"/>
<path d="M5.93933 3.16492L5.93933 6.41537H8.81433" stroke="#00A8EC" stroke-linecap="round"/>
</svg>
