<svg width="30" height="30" viewBox="0 0 30 30" fill="none" xmlns="http://www.w3.org/2000/svg">
<rect x="-0.5" y="0.5" width="29" height="29" rx="14.5" transform="matrix(-1 0 0 1 29 0)" fill="white"/>
<path d="M13 9L19 15L13 21" stroke="#1B315A" stroke-width="2"/>
<rect x="-0.5" y="0.5" width="29" height="29" rx="14.5" transform="matrix(-1 0 0 1 29 0)" stroke="#1B315A"/>
</svg>
