<svg width="38" height="65" viewBox="0 0 38 65" fill="none" xmlns="http://www.w3.org/2000/svg">
<path d="M36.6777 44.7365L19 62.4142L1.32233 44.7365" stroke="#193862" stroke-width="3"/>
<path d="M19 0V61" stroke="#193862" stroke-width="3"/>
</svg>
