<svg width="18" height="19" viewBox="0 0 18 19" fill="none" xmlns="http://www.w3.org/2000/svg">
<circle cx="9" cy="9" r="6.5" stroke="#ffffff"/>
<path d="M5.32031 9.3572L8.50428 12.0664L12.6796 5.93359" stroke="#ffffff"/>
</svg>
