<svg width="18" height="16" viewBox="0 0 18 16" fill="none" xmlns="http://www.w3.org/2000/svg">
<path fill-rule="evenodd" clip-rule="evenodd" d="M5.51406 0.8791C5.4 0.346947 5.328 0 5.328 0C5.328 0 6.35835 0.0645558 6.79973 0.620117C7.81681 1.89984 10.1469 5.46827 11.4275 7.60811H7.61383C7.61383 7.60811 5.62813 1.41125 5.51406 0.8791ZM5.51406 15.1209C5.76003 14.2248 7.61383 8.39189 7.61383 8.39189H11.4275C10.1469 10.5317 7.81681 14.1002 6.79973 15.3799C6.35835 15.9354 5.24821 16 5.24821 16C5.24821 16 5.32797 15.7987 5.51406 15.1209Z" fill="#00A8EC"/>
<path fill-rule="evenodd" clip-rule="evenodd" d="M15.84 6.59199C16.5639 6.59199 18 7.27247 18 7.97978C18 8.68709 16.5639 9.36756 15.84 9.36756H2.16L0.72 11.1023C0.36 11.1023 0 11.1023 0 11.1023L0.72 7.97978L0 4.85726L0.72 4.85727L2.16 6.59199H15.84Z" fill="#00A8EC"/>
<path d="M2.88 9.80565C2.88 9.74887 2.91056 9.69686 2.96536 9.67598C3.12331 9.61581 3.52052 9.50635 4.32 9.50635C5.11948 9.50635 5.51669 9.61581 5.67464 9.67598C5.72944 9.69686 5.76 9.74887 5.76 9.80565V11.0108C5.76 11.0678 5.72922 11.1199 5.67418 11.1408C5.51557 11.201 5.11744 11.3105 4.32 11.3105C3.52256 11.3105 3.12443 11.201 2.96582 11.1408C2.91078 11.1199 2.88 11.0678 2.88 11.0108V9.80565Z" fill="#00A8EC"/>
<path d="M2.16 10.4084L2.91146 9.71451V11.102L2.16 10.4084Z" fill="#00A8EC"/>
<path d="M2.88 4.9484C2.88 4.89161 2.91056 4.8396 2.96536 4.81873C3.12331 4.75856 3.52052 4.6491 4.32 4.6491C5.11948 4.6491 5.51669 4.75856 5.67464 4.81873C5.72944 4.8396 5.76 4.89161 5.76 4.9484V6.1535C5.76 6.2105 5.72922 6.26269 5.67418 6.28358C5.51557 6.34375 5.11744 6.45321 4.32 6.45321C3.52256 6.45321 3.12443 6.34375 2.96582 6.28358C2.91078 6.26269 2.88 6.2105 2.88 6.1535V4.9484Z" fill="#00A8EC"/>
<path d="M2.16 5.55115L2.8922 4.88873V6.2132L2.16 5.55115Z" fill="#00A8EC"/>
</svg>
