<svg width="34" height="34" viewBox="0 0 34 34" fill="none" xmlns="http://www.w3.org/2000/svg">
<path d="M33.4333 15.8667H32.198C31.6591 12.6559 28.883 10.2 25.5408 10.2C22.2417 10.2 19.4797 12.5341 18.84 15.6281C18.2897 15.1668 17.6619 14.922 17 14.922C16.3387 14.922 15.7114 15.1668 15.1612 15.6275C14.5288 12.5335 11.8008 10.2 8.5408 10.2C4.96173 10.2 2.02017 12.9489 1.7289 16.4333H0.566667C0.2533 16.4333 0 16.6872 0 17C0 17.3128 0.2533 17.5667 0.566667 17.5667H1.7289C2.02017 21.0511 4.96173 23.8 8.5408 23.8C12.2054 23.8 15.1912 20.8494 15.2904 17.1864C15.7737 16.4583 16.3755 16.0554 17 16.0554C17.6245 16.0554 18.2263 16.4588 18.7096 17.1864C18.8105 20.8494 21.8325 23.8 25.5408 23.8C29.2678 23.8 32.3 20.7496 32.3 17H33.4333C33.7467 17 34 16.7461 34 16.4333C34 16.1205 33.7467 15.8667 33.4333 15.8667ZM8.5408 22.6667C5.3941 22.6667 2.83333 20.1246 2.83333 17C2.83333 13.8754 5.3941 11.3333 8.5408 11.3333C11.696 11.3333 14.1667 13.8227 14.1667 17C14.1667 20.1773 11.696 22.6667 8.5408 22.6667ZM25.5408 22.6667C22.3941 22.6667 19.8333 20.1246 19.8333 17C19.8333 13.8754 22.3941 11.3333 25.5408 11.3333C28.696 11.3333 31.1667 13.8227 31.1667 17C31.1667 20.1773 28.696 22.6667 25.5408 22.6667Z" fill="#888888"/>
</svg>
