<svg width="22" height="22" viewBox="0 0 22 22" fill="none" xmlns="http://www.w3.org/2000/svg">
<circle cx="10.9998" cy="6.11531" r="4.30769" fill="#E5E5E5"/>
<path d="M11 12.8845C6.58172 12.8845 3 16.4662 3 20.8845H19C19 16.4662 15.4183 12.8845 11 12.8845Z" fill="#E5E5E5"/>
</svg>
