<svg width="13" height="13" viewBox="0 0 13 13" fill="none" xmlns="http://www.w3.org/2000/svg">
<g clip-path="url(#clip0)">
<path d="M11.1205 5.45538C11.1361 3.62254 9.57503 1.94231 7.64066 1.70997C7.60218 1.7054 7.56027 1.69846 7.5159 1.69111C7.42014 1.67525 7.32111 1.65894 7.22118 1.65894C6.82472 1.65894 6.71875 1.93743 6.69085 2.10352C6.66372 2.26501 6.6896 2.40062 6.76764 2.50676C6.89893 2.68529 7.12994 2.71698 7.31549 2.74238C7.36988 2.74989 7.42119 2.75687 7.46415 2.76652C9.20211 3.15486 9.78731 3.76542 10.0733 5.4886C10.0803 5.53071 10.0834 5.58259 10.0868 5.63762C10.0993 5.8436 10.1253 6.27216 10.586 6.27216H10.586C10.6244 6.27216 10.6656 6.26885 10.7085 6.2623C11.1376 6.1971 11.1241 5.80537 11.1177 5.61715C11.1159 5.56414 11.1141 5.514 11.1186 5.48065C11.1198 5.47225 11.1204 5.46381 11.1205 5.45538Z" fill="white"/>
<path d="M7.10887 1.03709C7.16035 1.04081 7.20908 1.04436 7.24965 1.05058C10.1036 1.48947 11.416 2.84163 11.7797 5.71786C11.7859 5.76675 11.7869 5.82638 11.7879 5.88952C11.7915 6.11424 11.799 6.58171 12.301 6.5914L12.3166 6.59157C12.4741 6.59157 12.5993 6.54409 12.6889 6.45034C12.8452 6.28687 12.8343 6.04403 12.8255 5.84887C12.8233 5.80099 12.8213 5.75589 12.8218 5.71641C12.8581 2.77477 10.3118 0.107311 7.37279 0.00811491C7.3606 0.00771118 7.34897 0.00835714 7.33722 0.0100124C7.33145 0.0108602 7.32075 0.0119099 7.30242 0.0119099C7.27311 0.0119099 7.23706 0.00936646 7.19882 0.00678261C7.1526 0.00363354 7.10019 0 7.04706 0C6.57902 0 6.49004 0.332671 6.47865 0.530981C6.45241 0.989292 6.89579 1.02155 7.10887 1.03709Z" fill="white"/>
<path d="M11.6419 9.4352C11.5813 9.38885 11.5185 9.34089 11.4598 9.29357C11.1482 9.04282 10.8167 8.81168 10.4961 8.58814C10.4296 8.54179 10.363 8.4954 10.2967 8.44889C9.88605 8.16043 9.51685 8.02026 9.16803 8.02026C8.69821 8.02026 8.28859 8.27985 7.95051 8.79174C7.80072 9.01867 7.61901 9.12901 7.39506 9.12901C7.26264 9.12901 7.11217 9.09122 6.94789 9.01665C5.62234 8.41555 4.6758 7.49392 4.13453 6.27737C3.87287 5.68938 3.95769 5.30503 4.41818 4.99223C4.67968 4.81475 5.16641 4.48434 5.13193 3.85162C5.09289 3.13311 3.50754 0.971191 2.83957 0.725644C2.55676 0.621644 2.25962 0.620675 1.95481 0.723222C1.18692 0.981364 0.635872 1.43471 0.361096 2.03416C0.0955647 2.61339 0.107555 3.29351 0.395776 4.001C1.22899 6.04652 2.40044 7.82994 3.87771 9.30165C5.3237 10.7423 7.10095 11.9224 9.16003 12.809C9.34562 12.8889 9.5403 12.9324 9.68245 12.9642C9.7309 12.9751 9.77273 12.9844 9.80321 12.9928C9.81996 12.9973 9.83724 12.9998 9.85456 12.9999L9.87083 13C9.87087 13 9.87083 13 9.87091 13C10.8394 13 12.0022 12.1151 12.3594 11.1061C12.6723 10.2227 12.101 9.78604 11.6419 9.4352Z" fill="white"/>
<path d="M7.53709 3.37364C7.37128 3.37784 7.02622 3.3864 6.90514 3.73785C6.8485 3.90208 6.85528 4.04468 6.92533 4.16168C7.02812 4.33334 7.22505 4.38595 7.40419 4.41481C8.05382 4.51906 8.38746 4.87829 8.4542 5.54525C8.48521 5.85624 8.69462 6.0734 8.9635 6.0734H8.96354C8.98341 6.0734 9.00371 6.07223 9.02394 6.06977C9.34732 6.0313 9.50409 5.7937 9.48992 5.36365C9.49509 4.91483 9.2602 4.40529 8.86071 3.99942C8.45985 3.5923 7.97663 3.36303 7.53709 3.37364Z" fill="white"/>
</g>
<defs>
<clipPath id="clip0">
<rect width="13" height="13" fill="white"/>
</clipPath>
</defs>
</svg>
