<svg width="14" height="14" viewBox="0 0 14 14" fill="none" xmlns="http://www.w3.org/2000/svg">
<path d="M3.32031 7.3572L6.50428 10.0664L10.6796 3.93359" stroke="#219653"/>
<circle cx="7" cy="7" r="6.5" stroke="#219653"/>
</svg>
