<svg width="33" height="32" viewBox="0 0 33 32" fill="none" xmlns="http://www.w3.org/2000/svg">
<path d="M5.29321 8.28394C3.63636 8.28394 2.29321 9.62708 2.29321 11.2839L2.29321 21.5136C2.29321 23.1705 3.63636 24.5136 5.29321 24.5136L28.0664 24.5136C29.7233 24.5136 31.0664 23.1705 31.0664 21.5136L31.0664 11.2839C31.0664 9.62708 29.7233 8.28394 28.0664 8.28394L5.29321 8.28394Z" fill="#00A8EC"/>
<path d="M29.6501 4.823L5.97469 4.823L3.75916 4.823" stroke="#00A8EC" stroke-width="3" stroke-linecap="round"/>
</svg>
