<svg width="32" height="32" viewBox="0 0 32 32" fill="none" xmlns="http://www.w3.org/2000/svg">
<path d="M4.57593 23.7158C2.91908 23.7158 1.57593 22.3727 1.57593 20.7158L1.57593 10.4862C1.57593 8.8293 2.91907 7.48616 4.57593 7.48616L27.3491 7.48616C29.006 7.48616 30.3491 8.8293 30.3491 10.4862L30.3491 20.7158C30.3491 22.3727 29.006 23.7158 27.3491 23.7158L4.57593 23.7158Z" fill="#00A8EC"/>
<path d="M28.9328 27.1768L5.2574 27.1768L3.04187 27.1768" stroke="#00A8EC" stroke-width="3" stroke-linecap="round"/>
</svg>
