<svg width="9" height="13" viewBox="0 0 9 13" fill="none" xmlns="http://www.w3.org/2000/svg">
<path d="M7.70641 7.24562L4.91151 11.2845L4.50037 11.8786L4.08921 11.2845L1.29011 7.23997C0.687096 6.43111 0.444261 5.38603 0.510656 4.38939C0.577252 3.38972 0.958595 2.38573 1.67167 1.67235L7.70641 7.24562ZM7.70641 7.24562C8.31125 6.43431 8.55538 5.38806 8.48955 4.39041C8.42353 3.38985 8.04215 2.38576 7.32904 1.67235L7.70641 7.24562ZM4.50035 0.5C5.56794 0.5 6.57417 0.917082 7.32901 1.67232L4.50035 0.5ZM4.50035 0.5C3.43257 0.5 2.42653 0.917092 1.6717 1.67232L4.50035 0.5ZM4.53266 5.24825C4.1047 5.24825 3.75499 4.89874 3.75499 4.46988C3.75499 4.04101 4.1047 3.6915 4.53266 3.6915C4.96062 3.6915 5.31033 4.04101 5.31033 4.46988C5.31033 4.89874 4.96062 5.24825 4.53266 5.24825Z" stroke="#00A8EC"/>
</svg>
