<svg width="20" height="20" viewBox="0 0 20 20" fill="none" xmlns="http://www.w3.org/2000/svg">
<path fill-rule="evenodd" clip-rule="evenodd" d="M9.66531 18.7653C4.64797 18.7653 0.565308 14.684 0.565308 9.66534C0.565308 4.648 4.64797 0.565338 9.66531 0.565338C14.684 0.565338 18.7666 4.648 18.7666 9.66534C18.7666 14.684 14.684 18.7653 9.66531 18.7653ZM9.66531 2.50134C5.71597 2.50134 2.50131 5.71467 2.50131 9.66534C2.50131 13.616 5.71597 16.8293 9.66531 16.8293C13.616 16.8293 16.8293 13.616 16.8293 9.66534C16.8293 5.71467 13.616 2.50134 9.66531 2.50134ZM14.408 10.884H9.56931C9.15598 10.884 8.81997 10.548 8.81997 10.1333V4.468C8.81997 4.05334 9.15598 3.71867 9.56931 3.71867C9.98397 3.71867 10.3186 4.05334 10.3186 4.468V9.384H14.408C14.8226 9.384 15.1573 9.72 15.1573 10.1333C15.1573 10.548 14.8226 10.884 14.408 10.884Z" fill="#00A2FF"/>
</svg>
